{
  "initStudyIndex": 0,
  "initStudySubIndex": 0,
  "initLastQuiz": false,
  "initMainVideo": true,
  "mainVideoUrl": "https://ncdn.smart-wisecamp.com/vod/contents/02/5/0251E00011110/0251E00011110_01.mp4",

  "conceptList": [
    {
      "questionList": [
        {
          "qType": "Video",
          "style": {},
          "videoUrl": "https://ncdn.smart-wisecamp.com/vod/contents/02/5/0251E00011110/0251E00011110_02.mp4"
        },

        {
          "qType": "DragDrop",
          "qNarrationFile": "narration.mp3",
          "qExplanationFile": "",
          "style": {},
          "qImg": "1_1_img.png",
          "answer": ["280", "560", "3", "210"],
          "examList": [
            {
              "examText": "",
              "style": {
                "width": "100px",
                "height": "70px"
              },
              "boxStyle": { "left": "456px", "top": "264px" }
            },
            {
              "examText": "",
              "style": {
                "width": "100px",
                "height": "70px"
              },
              "boxStyle": { "left": "704px", "top": "264px" }
            },
            {
              "examText": "",
              "style": {
                "width": "100px",
                "height": "70px"
              },
              "boxStyle": { "left": "587px", "top": "368px" }
            },
            {
              "examText": "",
              "style": {
                "width": "100px",
                "height": "70px"
              },
              "boxStyle": { "left": "753px", "top": "368px" }
            }
          ],
          "itemList": [
            {
              "examText": "630",
              "examImg": "",
              "style": { "width": "68px", "height": "51px" }
            },
            {
              "examText": "3",
              "examImg": "",
              "style": { "width": "68px", "height": "51px" }
            },
            {
              "examText": "210",
              "examImg": "",
              "style": { "width": "68px", "height": "51px" }
            },
            {
              "examText": "280",
              "examImg": "",
              "style": { "width": "68px", "height": "51px" }
            },
            {
              "examText": "560",
              "examImg": "",
              "style": { "width": "68px", "height": "51px" }
            }
          ]
        },

        {
          "qType": "Input",
          "qNarrationFile": "",
          "qExplanationFile": "",
          "style": {},
          "qImg": "1_2_img.png",
          "answer": ["200", "200", "770", "200", "570"],
          "examList": [
            {
              "examText": "",
              "boxStyle": { "left": "538px", "top": "262px" },
              "style": { "width": "100px", "height": "70px" }
            },
            {
              "examText": "",
              "boxStyle": { "left": "970px", "top": "262px" },
              "style": { "width": "100px", "height": "70px" }
            },
            {
              "examText": "",
              "boxStyle": { "left": "710px", "top": "366px" },
              "style": { "width": "100px", "height": "70px" }
            },
            {
              "examText": "",
              "boxStyle": { "left": "892px", "top": "366px" },
              "style": { "width": "100px", "height": "70px" }
            },
            {
              "examText": "",
              "boxStyle": { "left": "710px", "top": "464px" },
              "style": { "width": "100px", "height": "70px" }
            }
          ]
        }
      ]
    }
  ]
}
